<svg width="12" height="12" viewBox="0 0 12 12" fill="none" xmlns="http://www.w3.org/2000/svg">
<ellipse cx="6.00703" cy="5.96153" rx="5.84101" ry="5.84461" transform="rotate(19.1629 6.00703 5.96153)" fill="#21DECE"/>
</svg>
