<svg width="639" height="498" viewBox="0 0 639 498" fill="none" xmlns="http://www.w3.org/2000/svg">
<ellipse cx="319.5" cy="476" rx="319.5" ry="21.1556" fill="url(#paint0_radial_559_12838)" fill-opacity="0.2"/>
<ellipse cx="401.109" cy="472.745" rx="84.4655" ry="7.32308" fill="url(#paint1_radial_559_12838)" fill-opacity="0.2"/>
<ellipse cx="91.81" cy="474.373" rx="42.0287" ry="3.2547" fill="url(#paint2_radial_559_12838)" fill-opacity="0.2"/>
<path d="M71.0322 474.543H110.835C117.642 451.65 110.871 397.547 119.844 375.434C137.059 333.034 159.051 288.296 200.099 267.593C217.625 258.753 236.734 255.3 256.25 255.488C283.209 255.743 310.926 262.971 336.301 272.55C346.682 276.46 356.967 280.759 367.212 285.152C405.81 301.717 443.989 319.76 485.497 324.637C538.021 330.803 599.775 307.333 614.121 256.778C625.069 218.072 605.351 177.889 584.671 143.322C563.992 108.754 540.876 71.7681 544.652 31.746C544.666 31.6117 544.679 31.4639 544.706 31.3295C546.128 16.9544 556.139 8.97307 566.726 0C566.726 0 562.181 2.97499 556.992 7.06181C546.252 15.5203 540.801 28.4801 540.418 42.1456C539.952 58.8161 542.472 82.1229 554.857 102.829C575.536 137.383 595.255 177.58 584.306 216.286C569.96 266.827 451.171 207.582 398.647 201.402C383.814 199.669 407.376 205.836 393.234 201.402C371.052 194.456 368.593 258.162 347.007 248.811C333.568 242.98 320.115 237.19 306.487 232.045C300.843 229.908 295.078 227.907 289.245 226.053C289.231 226.053 289.231 226.053 289.218 226.039C250.051 213.652 207.217 208.829 171.028 226.738C170.785 226.859 170.528 226.98 170.284 227.101C129.236 247.79 107.244 292.528 90.0292 334.928C75.8053 369.979 78.0426 437.571 71.0322 474.543Z" fill="#F1F6FF"/>
<path d="M292.475 473.371C393.438 473.371 475.285 391.626 475.285 290.788C475.285 189.95 393.438 108.205 292.475 108.205C191.513 108.205 109.666 189.95 109.666 290.788C109.666 391.626 191.513 473.371 292.475 473.371Z" fill="white"/>
<path d="M291.953 474.543C111.081 478.693 107.115 392.87 107.115 290.788C107.115 188.708 190.267 105.659 292.475 105.659C394.682 105.659 477.834 188.708 477.834 290.788C477.834 392.87 394.16 474.543 291.953 474.543ZM292.475 110.753C193.079 110.753 113.889 191.53 112.216 290.788C110.659 383.109 208.857 498.314 292.475 470.825C337.317 421.5 464.097 368.375 472.734 290.788C483.717 192.124 391.871 110.753 292.475 110.753Z" fill="black"/>
<path d="M267.537 385.814C264.38 385.814 261.267 385.08 258.443 383.669C255.62 382.259 253.164 380.211 251.271 377.689L201.397 311.272C199.794 309.139 198.627 306.71 197.963 304.126C197.299 301.542 197.152 298.853 197.529 296.211C197.906 293.57 198.801 291.029 200.162 288.734C201.522 286.438 203.323 284.432 205.46 282.832C207.597 281.231 210.028 280.067 212.616 279.405C215.204 278.743 217.897 278.597 220.541 278.975C223.185 279.353 225.729 280.248 228.027 281.608C230.325 282.968 232.332 284.767 233.933 286.902L266.562 330.35L350.365 204.803C353.358 200.324 358.009 197.216 363.296 196.161C368.583 195.106 374.073 196.192 378.559 199.179C383.045 202.166 386.16 206.81 387.219 212.09C388.277 217.37 387.193 222.853 384.205 227.335L284.459 376.77C282.654 379.472 280.227 381.703 277.382 383.276C274.536 384.848 271.354 385.717 268.103 385.808C267.914 385.811 267.726 385.814 267.537 385.814Z" fill="#1052EF" fill-opacity="0.08"/>
<path d="M409.215 461.793H398.512L393.42 420.556L409.219 420.557L409.215 461.793Z" fill="#FFB6B6"/>
<path d="M409.591 472.947L376.674 472.945V472.53C376.674 469.136 378.024 465.881 380.427 463.482C382.829 461.082 386.088 459.734 389.486 459.733L395.5 455.177L406.718 459.734L409.591 459.734L409.591 472.947Z" fill="#FF8A00"/>
<path d="M362.679 410.687L352.792 414.782L332.271 378.639L346.864 372.595L362.679 410.687Z" fill="#FFB6B6"/>
<path d="M367.305 420.844L336.898 433.437L336.739 433.053C335.437 429.918 335.436 426.395 336.735 423.26C338.034 420.124 340.527 417.631 343.666 416.331L347.473 409.822L359.583 409.739L362.238 408.64L367.305 420.844Z" fill="#FF8A00"/>
<path d="M421.453 227.212L345.487 235.139L335.325 269.322L300.134 325.806C300.134 325.806 324.69 367.085 322.384 366.635C320.078 366.186 324.687 377.438 327.915 376.784C331.143 376.131 334.499 383.468 332.268 384.772C330.036 386.077 338.99 397.106 338.99 397.106L352.673 384.84C355.584 362.912 352.067 343.397 339.538 327.263L378.743 284.992L386.177 281.911L392.078 438.772L413.904 439.13C419.927 408.187 422.952 380.337 418.245 360.47C418.245 360.47 418.921 300.786 421.502 301.439C424.084 302.092 421.895 294.316 421.895 294.316C421.895 294.316 419.635 287.695 422.412 284.947C425.19 282.2 423.456 266.043 423.456 266.043C428.045 250.753 426.664 238.128 421.453 227.212Z" fill="black"/>
<path d="M363.043 101.068L384.044 95.6324L398.376 72.8843L414.149 75.1338L422.084 103.406L438.658 113.015C438.658 113.015 429.497 209.788 431.676 215.101C433.855 220.415 441.668 219.976 434.996 226.826C428.323 233.676 427.439 230.917 428.988 238.374C430.536 245.832 441.823 253.724 428.988 253.645C416.152 253.567 338.702 252.462 340.915 243.621C343.128 234.781 343.093 237.026 346.429 231.483C349.766 225.94 352.012 229.038 350.889 220.859C349.766 212.679 350.873 207.154 350.873 202.734C350.873 198.314 354.58 158.146 354.58 158.146L363.043 101.068Z" fill="white"/>
<path d="M405.135 85.4821C420.069 85.4821 432.175 73.3963 432.175 58.4877C432.175 43.5792 420.069 31.4934 405.135 31.4934C390.202 31.4934 378.096 43.5792 378.096 58.4877C378.096 73.3963 390.202 85.4821 405.135 85.4821Z" fill="#FFB6B6"/>
<path d="M376.295 41.8796C378.694 43.8202 378.145 53.2583 380.819 51.7199C383.493 50.1816 384.049 47.4267 387.128 47.3979C389.638 47.5366 392.006 48.6089 393.767 50.4045C394.094 50.7009 394.406 51.0116 394.709 51.3188C394.986 51.2217 395.259 51.1336 395.547 51.0614C397.706 50.5338 399.986 50.855 401.916 51.9589C400.134 52.0862 398.437 52.771 397.065 53.9163C397.652 54.5755 398.249 55.2383 398.876 55.8509C404.11 60.984 414.841 55.5176 422.057 54.2841C416.047 60.8512 417.232 64.5173 418.727 73.2949L418.733 73.7744C419.04 71.7502 425.518 71.851 424.45 74.537C423.109 77.1905 421.431 79.6594 419.457 81.8825C428.284 75.7629 435.41 67.3274 436.984 57.1377C437.308 54.9953 437.938 52.8093 437.329 50.7205C437.069 49.6643 436.468 48.7237 435.618 48.0458C434.769 47.3678 433.718 46.9907 432.632 46.9732C433.615 43.8475 433.734 40.5135 432.975 37.3258C432.216 34.1381 430.608 31.2157 428.323 28.8694C426.037 26.523 423.158 24.8405 419.993 24.0005C416.828 23.1606 413.495 23.1947 410.348 24.0992C407.477 25.1203 404.677 26.3299 401.966 27.7201C399.229 29.1156 396.131 29.6407 393.087 29.225C391.192 28.833 389.271 27.8506 387.413 28.4069C385.26 29.0532 384.334 31.3291 383.471 33.5262C385.091 34.1184 386.498 35.1805 387.512 36.5768C385.837 35.9583 384.01 35.884 382.291 36.3645C382.259 36.3701 382.228 36.3785 382.198 36.3897C380.248 39.8862 380.135 40.7435 376.295 41.8796Z" fill="black"/>
<path d="M387.713 89.0321C375.077 88.016 363.539 97.668 358.278 109.188C353.018 120.708 352.673 133.777 352.418 146.435L351.624 185.785C351.507 191.608 351.389 197.432 351.099 203.249C350.949 208.909 350.236 214.54 348.971 220.059C346.394 230.187 340.727 239.212 335.143 248.049C349.44 252.365 363.981 255.834 378.689 258.436C386.033 234.708 393.462 210.299 391.657 185.529C390.701 172.422 387.172 159.625 385.83 146.551C383.93 128.036 386.448 109.383 388.962 90.9409" fill="#FF8A00"/>
<path d="M418.387 91.2454C430.904 93.2554 439.817 105.368 442.188 117.806C444.558 130.244 441.786 143.02 439.024 155.378C436.162 168.182 433.301 180.986 430.439 193.79C429.169 199.475 427.898 205.16 426.797 210.879C425.728 216.435 430.207 223.561 430.258 229.219C430.353 239.668 428.321 248.274 431.645 258.182C416.73 258.984 401.781 258.904 386.875 257.944C385.382 233.153 383.969 207.68 391.613 184.047C395.657 171.541 402.129 159.947 406.54 147.566C412.789 130.031 414.777 111.315 416.72 92.8033" fill="#FF8A00"/>
<path d="M426.731 269.881C425.802 268.263 425.541 266.346 426.005 264.539C426.468 262.732 427.619 261.177 429.213 260.205C429.54 260.013 429.883 259.847 430.237 259.711L428.641 205.435L445.931 201.04L439.338 264.274C439.789 265.785 439.727 267.403 439.16 268.876C438.594 270.348 437.555 271.591 436.207 272.412C435.435 272.872 434.58 273.175 433.691 273.305C432.802 273.435 431.896 273.388 431.025 273.168C430.154 272.948 429.335 272.559 428.614 272.023C427.893 271.487 427.286 270.814 426.825 270.043C426.793 269.989 426.762 269.935 426.731 269.881Z" fill="#FFB6B6"/>
<path d="M425.469 112.928C425.469 112.928 437.538 102.735 447.693 123.116C457.848 143.498 452.173 190.059 450.743 192.544C449.314 195.029 448.442 191.567 449.225 198.191C449.861 203.578 446.075 202.904 447.433 204.054C451.014 207.085 440.987 207.431 446.137 210.102C451.287 212.773 428.237 213.273 428.237 213.273C428.237 213.273 425.449 211.284 427.385 203.785C428.472 199.573 431.195 198.032 428.291 196.083C425.387 194.134 431.291 188.109 431.295 186.787C431.299 185.465 422.089 156.548 422.089 156.548L425.469 112.928Z" fill="#FF8A00"/>
<path d="M325.604 364.009C322.448 364.009 319.334 363.274 316.511 361.864C313.687 360.454 311.231 358.406 309.338 355.883L259.465 289.467C257.861 287.333 256.694 284.905 256.03 282.321C255.367 279.736 255.219 277.047 255.596 274.406C255.974 271.765 256.868 269.224 258.229 266.928C259.59 264.632 261.39 262.627 263.527 261.026C265.664 259.426 268.096 258.261 270.683 257.599C273.271 256.938 275.964 256.792 278.608 257.17C281.252 257.548 283.796 258.442 286.094 259.802C288.392 261.162 290.399 262.961 292.001 265.097L324.63 308.544L408.432 182.998C409.914 180.778 411.818 178.872 414.037 177.388C416.256 175.904 418.746 174.871 421.364 174.348C423.983 173.825 426.679 173.822 429.299 174.339C431.919 174.857 434.41 175.885 436.632 177.364C438.854 178.844 440.763 180.746 442.249 182.962C443.735 185.178 444.769 187.665 445.293 190.28C445.817 192.896 445.819 195.589 445.301 198.205C444.783 200.822 443.754 203.31 442.272 205.53L342.526 354.964C340.722 357.667 338.295 359.898 335.449 361.47C332.603 363.043 329.421 363.911 326.17 364.002C325.982 364.005 325.793 364.009 325.604 364.009Z" fill="#1052EF"/>
<path d="M363.619 260.453C364.636 258.889 365.003 256.99 364.64 255.16C364.277 253.33 363.214 251.714 361.676 250.655C361.36 250.445 361.027 250.261 360.681 250.106L365.278 196L348.258 190.657L351.342 254.159C350.808 255.643 350.78 257.262 351.264 258.763C351.748 260.265 352.716 261.564 354.017 262.457C354.763 262.959 355.599 263.309 356.48 263.488C357.36 263.666 358.268 263.67 359.15 263.498C360.032 263.327 360.871 262.984 361.62 262.488C362.369 261.992 363.014 261.354 363.516 260.61C363.551 260.558 363.585 260.506 363.619 260.453Z" fill="#FFB6B6"/>
<path d="M373.58 103.922C373.58 103.922 362.094 93.0779 350.826 112.868C339.559 132.657 342.649 179.46 343.939 182.02C345.229 184.581 346.291 181.172 345.143 187.743C344.209 193.087 348.026 192.623 346.607 193.696C342.864 196.525 352.857 197.423 347.567 199.806C342.277 202.188 365.264 203.96 365.264 203.96C365.264 203.96 368.158 202.128 366.639 194.534C365.787 190.268 363.153 188.58 366.161 186.794C369.168 185.008 363.607 178.666 363.676 177.346C363.745 176.025 374.541 147.662 374.541 147.662L373.58 103.922Z" fill="#FF8A00"/>
<ellipse cx="188.234" cy="14.1008" rx="8.99418" ry="8.97307" fill="#21DECE"/>
<ellipse cx="107.288" cy="76.9123" rx="14.562" ry="14.5278" fill="#FF8A00"/>
<defs>
<radialGradient id="paint0_radial_559_12838" cx="0" cy="0" r="1" gradientUnits="userSpaceOnUse" gradientTransform="translate(319.5 476) rotate(90) scale(21.1556 319.5)">
<stop stop-color="#0012B9"/>
<stop offset="1" stop-color="#0012B9" stop-opacity="0"/>
</radialGradient>
<radialGradient id="paint1_radial_559_12838" cx="0" cy="0" r="1" gradientUnits="userSpaceOnUse" gradientTransform="translate(401.109 472.745) rotate(90) scale(7.32308 84.4655)">
<stop stop-color="#0012B9"/>
<stop offset="1" stop-color="#0012B9" stop-opacity="0"/>
</radialGradient>
<radialGradient id="paint2_radial_559_12838" cx="0" cy="0" r="1" gradientUnits="userSpaceOnUse" gradientTransform="translate(91.81 474.373) rotate(90) scale(3.2547 42.0287)">
<stop stop-color="#0012B9"/>
<stop offset="1" stop-color="#0012B9" stop-opacity="0"/>
</radialGradient>
</defs>
</svg>
