<svg width="32" height="32" viewBox="0 0 32 32" fill="none" xmlns="http://www.w3.org/2000/svg">
<path opacity="0.4" d="M16.0003 29.3334C23.3641 29.3334 29.3337 23.3639 29.3337 16.0001C29.3337 8.63628 23.3641 2.66675 16.0003 2.66675C8.63653 2.66675 2.66699 8.63628 2.66699 16.0001C2.66699 23.3639 8.63653 29.3334 16.0003 29.3334Z" fill="#1152EE"/>
<path d="M14.1069 20.7732C13.8402 20.7732 13.5869 20.6666 13.4002 20.4799L9.62691 16.7066C9.24025 16.3199 9.24025 15.6799 9.62691 15.2932C10.0136 14.9066 10.6536 14.9066 11.0402 15.2932L14.1069 18.3599L20.9602 11.5066C21.3469 11.1199 21.9869 11.1199 22.3736 11.5066C22.7602 11.8932 22.7602 12.5332 22.3736 12.9199L14.8136 20.4799C14.6269 20.6666 14.3736 20.7732 14.1069 20.7732Z" fill="#1152EE"/>
</svg>
