<svg width="70" height="49" viewBox="0 0 70 49" fill="none" xmlns="http://www.w3.org/2000/svg">
<rect y="0.25293" width="70" height="47.9945" rx="16" fill="white"/>
<rect y="0.25293" width="70" height="47.9945" rx="4" fill="white"/>
<path d="M29.9501 32.4158H25.9922L28.4678 17.1104H32.4255L29.9501 32.4158Z" fill="#00579F"/>
<path d="M44.2947 17.4846C43.514 17.1749 42.2758 16.833 40.7447 16.833C36.8361 16.833 34.0837 18.917 34.0668 21.8966C34.0343 24.0949 36.0374 25.3159 37.5356 26.0489C39.0669 26.7979 39.5874 27.2867 39.5874 27.9544C39.5718 28.9797 38.35 29.4524 37.2105 29.4524C35.6303 29.4524 34.7836 29.2087 33.4969 28.6382L32.9757 28.3937L32.4219 31.8294C33.3502 32.2523 35.0604 32.6275 36.8361 32.644C40.989 32.644 43.6928 30.5922 43.7248 27.417C43.7406 25.6747 42.6829 24.3396 40.4025 23.2487C39.0182 22.5484 38.1704 22.0762 38.1704 21.3597C38.1866 20.7083 38.8875 20.0411 40.4501 20.0411C41.7368 20.0084 42.6822 20.3177 43.3984 20.6271L43.7564 20.7896L44.2947 17.4846Z" fill="#00579F"/>
<path d="M49.5572 26.9936C49.8832 26.1143 51.1374 22.7113 51.1374 22.7113C51.121 22.744 51.4627 21.8158 51.6582 21.246L51.9348 22.5648C51.9348 22.5648 52.6843 26.2284 52.847 26.9936C52.2285 26.9936 50.339 26.9936 49.5572 26.9936ZM54.4428 17.1104H51.3813C50.4372 17.1104 49.72 17.3869 49.3126 18.3802L43.4336 32.4156H47.5866C47.5866 32.4156 48.2703 30.5265 48.4172 30.1197C48.8728 30.1197 52.9128 30.1197 53.4989 30.1197C53.6126 30.657 53.9712 32.4156 53.9712 32.4156H57.6359L54.4428 17.1104Z" fill="#00579F"/>
<path d="M22.6859 17.1104L18.8098 27.5472L18.3862 25.4305C17.6696 22.9881 15.4221 20.3344 12.9141 19.015L16.4645 32.3996H20.6499L26.8711 17.1104H22.6859Z" fill="#00579F"/>
<path d="M15.2066 17.1104H8.83858L8.77344 17.4196C13.7409 18.6899 17.0307 21.7518 18.3823 25.4321L16.998 18.3971C16.7701 17.4194 16.0697 17.1426 15.2066 17.1104Z" fill="#FAA61A"/>
</svg>
