<svg width="429" height="152" viewBox="0 0 429 152" fill="none" xmlns="http://www.w3.org/2000/svg">
<path d="M0.5 16C0.5 7.16345 7.66344 0 16.5 0H409.5C418.337 0 425.5 7.16344 425.5 16V136C425.5 144.837 418.337 152 409.5 152H16.5C7.66345 152 0.5 144.837 0.5 136V16Z" fill="#FF8A00" fill-opacity="0.08"/>
<path opacity="0.4" d="M234.32 119.333C222.187 119.333 212.307 109.497 212.307 97.32C212.307 85.1867 222.143 75.3066 234.32 75.3066C246.453 75.3066 256.333 85.1434 256.333 97.32C256.333 109.497 246.497 119.333 234.32 119.333Z" fill="#FF8A00"/>
<path opacity="0.4" d="M182.753 32.667H199.739C208.709 32.667 213.043 37.0003 212.826 45.7536V62.7403C213.043 71.7103 208.709 76.0436 199.739 75.827H182.753C173.999 76.0003 169.666 71.667 169.666 62.697V45.7104C169.666 37.0004 173.999 32.667 182.753 32.667Z" fill="#FF8A00"/>
<path d="M200.043 59.7933C198.7 59.7933 197.443 59.2733 196.273 58.4066C197.357 56.6733 198.137 54.7233 198.527 52.6H200C201.777 52.6 203.25 51.1266 203.25 49.35C203.25 47.5733 201.777 46.1 200 46.1H195.71C195.667 46.1 195.623 46.1 195.623 46.1H195.537H194.41C194.237 44.4533 192.893 43.1533 191.203 43.1533C189.513 43.1533 188.17 44.4533 187.997 46.1H182.407C180.63 46.1 179.157 47.5733 179.157 49.35C179.157 51.1266 180.63 52.6 182.407 52.6H191.81C190.51 56.76 186.783 59.7933 182.363 59.7933C180.587 59.7933 179.113 61.2666 179.113 63.0433C179.113 64.82 180.587 66.2933 182.363 66.2933C185.873 66.2933 189.123 65.1233 191.81 63.1733C194.193 65.1666 197.053 66.2933 200 66.2933C201.777 66.2933 203.25 64.82 203.25 63.0433C203.25 61.2666 201.82 59.7933 200.043 59.7933Z" fill="#FF8A00"/>
<path d="M199.999 122.583C181.496 122.583 166.416 107.503 166.416 89C166.416 87.2233 167.889 85.75 169.666 85.75C171.443 85.75 172.916 87.2233 172.916 89C172.916 101.827 181.843 112.573 193.846 115.39L192.676 113.44C191.766 111.88 192.243 109.887 193.803 108.977C195.319 108.067 197.356 108.543 198.266 110.103L202.816 117.687C203.423 118.683 203.423 119.94 202.859 120.937C202.253 121.933 201.169 122.583 199.999 122.583Z" fill="#FF8A00"/>
<path d="M256.333 66.2503C254.557 66.2503 253.083 64.777 253.083 63.0003C253.083 50.1737 244.157 39.427 232.153 36.6103L233.323 38.5603C234.233 40.1203 233.757 42.1137 232.197 43.0237C230.68 43.9337 228.643 43.457 227.733 41.897L223.183 34.3137C222.577 33.317 222.577 32.0603 223.14 31.0637C223.703 30.0237 224.787 29.417 225.957 29.417C244.46 29.417 259.54 44.497 259.54 63.0003C259.583 64.777 258.11 66.2503 256.333 66.2503Z" fill="#FF8A00"/>
<path d="M246.497 103.43L237.223 84.9264C236.66 83.843 235.533 83.1064 234.32 83.1064C233.107 83.1064 231.98 83.7997 231.417 84.883L222.143 103.386C221.32 104.99 221.97 106.94 223.617 107.763C224.093 107.98 224.57 108.11 225.047 108.11C226.217 108.11 227.387 107.46 227.95 106.333L228.687 104.86H239.91L240.647 106.333C241.47 107.936 243.42 108.586 245.023 107.806C246.67 106.983 247.32 105.033 246.497 103.43ZM231.98 98.3597L234.363 93.6364L236.747 98.3597H231.98Z" fill="#FF8A00"/>
<path d="M0.5 0H425.5H0.5ZM425.5 152H0.5H425.5ZM0.5 152V0V152ZM409.5 0C420.27 0 429 8.73045 429 19.5V132.5C429 143.27 420.27 152 409.5 152C416.404 152 422 144.837 422 136V16C422 7.16344 416.404 0 409.5 0Z" fill="#FF8A00"/>
</svg>
